Demographics and Brexit-results · Portfolio website for Max Derie
…
There are no duplicate values.
One may observe that the data in the brexit_results file is untidy, and we may want to use pivot_longer to put all the party percentages in the same column called ‘parpercent’, and the name of the party in the colomn ‘party’.

brexit_results_long<-brexit_results %>% 
  
  pivot_longer(names_to= 'party', values_to='parpercent', cols=c(con_2015, lab_2015, ld_2015, ukip_2015)) %>% 
  
  select(leave_share, party, parpercent)

brexit_results_long

## # A tibble: 2,528 x 3
##    leave_share party     parpercent
##          <dbl> <chr>          <dbl>
##  1        57.9 con_2015       50.6 
##  2        57.9 lab_2015       18.3 
##  3        57.9 ld_2015         8.82
##  4        57.9 ukip_2015      17.9 
##  5        67.8 con_2015       52.0 
##  6        67.8 lab_2015       22.4 
##  7        67.8 ld_2015         3.37
##  8        67.8 ukip_2015      19.6 
##  9        38.6 con_2015       53.0 
## 10        38.6 lab_2015       26.7 
## # ... with 2,518 more rows
…
